{
	"info": {
		"_postman_id": "8f0a11c1-33a5-44a4-938c-b1d7df169348",
		"name": "Healtify",
		"schema": "https://schema.getpostman.com/json/collection/v2.1.0/collection.json"
	},
	"item": [
		{
			"name": "signup",
			"request": {
				"auth": {
					"type": "bearer",
					"bearer": [
						{
							"key": "token",
							"value": "eyJhbGciOiJIUzI1NiIsInR5cCI6IkpXVCJ9.eyJpYXQiOjE2NDY3NTgwNjcsImV4cCI6MTY0Njg0NDQ2N30.vLYULdp5C5GkatHj3fZGsIcGIFYpL_KCWKxvYou5wzc",
							"type": "string"
						}
					]
				},
				"method": "POST",
				"header": [],
				"body": {
					"mode": "raw",
					"raw": "{\r\n    \"email\" : \"arul@gmail.com\",\r\n    \"username\" : \"arul\",\r\n    \"password\" : \"1234\"\r\n}",
					"options": {
						"raw": {
							"language": "json"
						}
					}
				},
				"url": {
					"raw": "http://localhost:3000/api/v1/signup",
					"protocol": "http",
					"host": [
						"localhost"
					],
					"port": "3000",
					"path": [
						"api",
						"v1",
						"signup"
					]
				}
			},
			"response": []
		},
		{
			"name": "signin",
			"request": {
				"method": "POST",
				"header": [],
				"body": {
					"mode": "raw",
					"raw": "{\r\n    \"email\" : \"arul@gmail.com\",\r\n    \"username\" : \"arul\",\r\n    \"password\" : \"1234\"\r\n}",
					"options": {
						"raw": {
							"language": "json"
						}
					}
				},
				"url": {
					"raw": "http://localhost:3000/api/v1/signup",
					"protocol": "http",
					"host": [
						"localhost"
					],
					"port": "3000",
					"path": [
						"api",
						"v1",
						"signup"
					]
				}
			},
			"response": []
		},
		{
			"name": "postGift",
			"request": {
				"auth": {
					"type": "bearer",
					"bearer": [
						{
							"key": "token",
							"value": "eyJhbGciOiJIUzI1NiIsInR5cCI6IkpXVCJ9.eyJpYXQiOjE2NDY3NTgwNjcsImV4cCI6MTY0Njg0NDQ2N30.vLYULdp5C5GkatHj3fZGsIcGIFYpL_KCWKxvYou5wzc",
							"type": "string"
						}
					]
				},
				"method": "POST",
				"header": [
					{
						"key": "",
						"value": "",
						"type": "default"
					}
				],
				"body": {
					"mode": "raw",
					"raw": "{\r\n \"product_name\" : \"Samsung Galaxy S10 \",\r\n \"rating\" : \"2.7\",\r\n \"price\"  : \"200000\",\r\n \"isStock\": \"true\",\r\n \"description\":\"Ukuran Layar 62 inci. Dual Edge Super AMOLED 2960 x 1440 (QUAD HD+ 529 ppi 185:g Memori: RAM 6 GB (LPODR4', ROM 6' GB. MicroSD up to 'OOG3 Sistem operasi: Android B.O 'Oreo)\",\r\n \"stock\" : \"10\",\r\n \"redeem\": \"true\"\r\n\r\n}",
					"options": {
						"raw": {
							"language": "json"
						}
					}
				},
				"url": {
					"raw": "http://localhost:3000/api/v1/gifts",
					"protocol": "http",
					"host": [
						"localhost"
					],
					"port": "3000",
					"path": [
						"api",
						"v1",
						"gifts"
					]
				}
			},
			"response": []
		},
		{
			"name": "getGifts",
			"event": [
				{
					"listen": "test",
					"script": {
						"exec": [
							"pm.test(\"Status should be 200\",function(){\r",
							"    pm.response.to.have.status(200);\r",
							"});"
						],
						"type": "text/javascript"
					}
				}
			],
			"request": {
				"auth": {
					"type": "bearer",
					"bearer": [
						{
							"key": "token",
							"value": "eyJhbGciOiJIUzI1NiIsInR5cCI6IkpXVCJ9.eyJpYXQiOjE2NDY3NTgwNjcsImV4cCI6MTY0Njg0NDQ2N30.vLYULdp5C5GkatHj3fZGsIcGIFYpL_KCWKxvYou5wzc",
							"type": "string"
						}
					]
				},
				"method": "GET",
				"header": [],
				"url": {
					"raw": "http://localhost:3000/api/v1/gifts?page=0&limit=1",
					"protocol": "http",
					"host": [
						"localhost"
					],
					"port": "3000",
					"path": [
						"api",
						"v1",
						"gifts"
					],
					"query": [
						{
							"key": "page",
							"value": "0"
						},
						{
							"key": "limit",
							"value": "1"
						}
					]
				}
			},
			"response": []
		},
		{
			"name": "getGiftbyId",
			"protocolProfileBehavior": {
				"disableBodyPruning": true
			},
			"request": {
				"auth": {
					"type": "bearer",
					"bearer": [
						{
							"key": "token",
							"value": "eyJhbGciOiJIUzI1NiIsInR5cCI6IkpXVCJ9.eyJpYXQiOjE2NDY3NTgwNjcsImV4cCI6MTY0Njg0NDQ2N30.vLYULdp5C5GkatHj3fZGsIcGIFYpL_KCWKxvYou5wzc",
							"type": "string"
						}
					]
				},
				"method": "GET",
				"header": [
					{
						"key": "",
						"value": "",
						"type": "default"
					}
				],
				"body": {
					"mode": "raw",
					"raw": "{\r\n \"product_name\" : \"Samsung Galaxy S10 \",\r\n \"rating\" : \"2.7\",\r\n \"price\"  : \"200000\",\r\n \"isStock\": \"true\",\r\n \"description\":\"Ukuran Layar 62 inci. Dual Edge Super AMOLED 2960 x 1440 (QUAD HD+ 529 ppi 185:g Memori: RAM 6 GB (LPODR4', ROM 6' GB. MicroSD up to 'OOG3 Sistem operasi: Android B.O 'Oreo)\",\r\n \"stock\" : \"10\",\r\n \"redeem\": \"true\"\r\n\r\n}",
					"options": {
						"raw": {
							"language": "json"
						}
					}
				},
				"url": {
					"raw": "http://localhost:3000/api/v1/gifts/d5ce29f0-9eff-11ec-9c9d-a1b1418ecfdd",
					"protocol": "http",
					"host": [
						"localhost"
					],
					"port": "3000",
					"path": [
						"api",
						"v1",
						"gifts",
						"d5ce29f0-9eff-11ec-9c9d-a1b1418ecfdd"
					]
				}
			},
			"response": []
		},
		{
			"name": "redeemGift",
			"event": [
				{
					"listen": "test",
					"script": {
						"exec": [
							"pm.test(\"Status should be 200\",function(){\r",
							"    pm.response.to.have.status(200);\r",
							"})"
						],
						"type": "text/javascript"
					}
				}
			],
			"request": {
				"auth": {
					"type": "bearer",
					"bearer": [
						{
							"key": "token",
							"value": "eyJhbGciOiJIUzI1NiIsInR5cCI6IkpXVCJ9.eyJpYXQiOjE2NDY3NjI4NjAsImV4cCI6MTY0Njg0OTI2MH0.XCrYeh2SCgecfsizgIUoe0m-aLUsRIvvunig5b3M-Fs",
							"type": "string"
						}
					]
				},
				"method": "POST",
				"header": [],
				"body": {
					"mode": "raw",
					"raw": "{\r\n    \"redeem\" : false\r\n}",
					"options": {
						"raw": {
							"language": "json"
						}
					}
				},
				"url": {
					"raw": "http://localhost:3000/api/v1/gifts/cadd31f0-9f1b-11ec-9b44-53bfdcbf132c/redeem",
					"protocol": "http",
					"host": [
						"localhost"
					],
					"port": "3000",
					"path": [
						"api",
						"v1",
						"gifts",
						"cadd31f0-9f1b-11ec-9b44-53bfdcbf132c",
						"redeem"
					]
				}
			},
			"response": []
		},
		{
			"name": "ratingGift",
			"request": {
				"auth": {
					"type": "bearer",
					"bearer": [
						{
							"key": "token",
							"value": "eyJhbGciOiJIUzI1NiIsInR5cCI6IkpXVCJ9.eyJpYXQiOjE2NDY3NjI4NjAsImV4cCI6MTY0Njg0OTI2MH0.XCrYeh2SCgecfsizgIUoe0m-aLUsRIvvunig5b3M-Fs",
							"type": "string"
						}
					]
				},
				"method": "POST",
				"header": [],
				"body": {
					"mode": "raw",
					"raw": "{\r\n    \"rating\" : 3.2\r\n}",
					"options": {
						"raw": {
							"language": "json"
						}
					}
				},
				"url": {
					"raw": "http://localhost:3000/api/v1/gifts/e6155900-9f0e-11ec-b60b-099dfccb9b79/rating",
					"protocol": "http",
					"host": [
						"localhost"
					],
					"port": "3000",
					"path": [
						"api",
						"v1",
						"gifts",
						"e6155900-9f0e-11ec-b60b-099dfccb9b79",
						"rating"
					]
				}
			},
			"response": []
		},
		{
			"name": "putGiftbyId",
			"request": {
				"auth": {
					"type": "bearer",
					"bearer": [
						{
							"key": "token",
							"value": "eyJhbGciOiJIUzI1NiIsInR5cCI6IkpXVCJ9.eyJpYXQiOjE2NDY3NTgwNjcsImV4cCI6MTY0Njg0NDQ2N30.vLYULdp5C5GkatHj3fZGsIcGIFYpL_KCWKxvYou5wzc",
							"type": "string"
						}
					]
				},
				"method": "PUT",
				"header": [
					{
						"key": "",
						"value": "",
						"type": "default"
					}
				],
				"body": {
					"mode": "raw",
					"raw": "{\r\n \"product_name\" : \"Samsung Galaxy S11 \",\r\n \"rating\" : \"2.7\",\r\n \"price\"  : \"200000\",\r\n \"isStock\": \"true\",\r\n \"description\":\"Ukuran Layar 62 inci. Dual Edge Super AMOLED 2960 x 1440 (QUAD HD+ 529 ppi 185:g Memori: RAM 6 GB (LPODR4', ROM 6' GB. MicroSD up to 'OOG3 Sistem operasi: Android B.O 'Oreo)\",\r\n \"stock\" : \"10\",\r\n \"redeem\": \"true\"\r\n\r\n}",
					"options": {
						"raw": {
							"language": "json"
						}
					}
				},
				"url": {
					"raw": "http://localhost:3000/api/v1/gifts/d5ce29f0-9eff-11ec-9c9d-a1b1418ecfdd",
					"protocol": "http",
					"host": [
						"localhost"
					],
					"port": "3000",
					"path": [
						"api",
						"v1",
						"gifts",
						"d5ce29f0-9eff-11ec-9c9d-a1b1418ecfdd"
					]
				}
			},
			"response": []
		},
		{
			"name": "DeleteGiftbyId",
			"request": {
				"auth": {
					"type": "bearer",
					"bearer": [
						{
							"key": "token",
							"value": "eyJhbGciOiJIUzI1NiIsInR5cCI6IkpXVCJ9.eyJpYXQiOjE2NDY3NTgwNjcsImV4cCI6MTY0Njg0NDQ2N30.vLYULdp5C5GkatHj3fZGsIcGIFYpL_KCWKxvYou5wzc",
							"type": "string"
						}
					]
				},
				"method": "DELETE",
				"header": [
					{
						"key": "",
						"value": "",
						"type": "default"
					}
				],
				"body": {
					"mode": "raw",
					"raw": "{\r\n \"product_name\" : \"Samsung Galaxy S30\",\r\n \"rating\" : \"2.8\",\r\n \"price\"  : \"200000\",\r\n \"isStock\": \"true\",\r\n \"description\":\"Ukuran Layar 62 inci. Dual Edge Super AMOLED 2960 x 1440 (QUAD HD+ 529 ppi 185:g Memori: RAM 6 GB (LPODR4', ROM 6' GB. MicroSD up to 'OOG3 Sistem operasi: Android B.O 'Oreo)\",\r\n \"stock\" : \"10\",\r\n \"redeem\": \"true\"\r\n\r\n}",
					"options": {
						"raw": {
							"language": "json"
						}
					}
				},
				"url": {
					"raw": "http://localhost:3000/api/v1/gifts/d5ce29f0-9eff-11ec-9c9d-a1b1418ecfdd",
					"protocol": "http",
					"host": [
						"localhost"
					],
					"port": "3000",
					"path": [
						"api",
						"v1",
						"gifts",
						"d5ce29f0-9eff-11ec-9c9d-a1b1418ecfdd"
					]
				}
			},
			"response": []
		}
	]
}